{
  "name": "DoctorsPortal",
  "app_id": "",
  "gulpStartupTasks": [
    "sass",
    "watch"
  ],
  "browsers": [
    {
      "platform": "android",
      "browser": "crosswalk",
      "version": "12.41.296.5"
    }
  ],
  "watchPatterns": [
    "www/**/*",
    "!www/lib/**/*",
    "!www/**/*.map"
  ],
  "type": "ionic1"
}
